Actor,Score
John Carradine,0.112573024474
Peter Lorre,0.104167718606
James Stewart,0.103255168884
Henry Fonda,0.0992858375748
Humphrey Bogart,0.0921530788456
David Niven,0.0911488286486
Cary Grant,0.0893805329566
C.Aubrey Smith,0.0884745749431
Gary Cooper,0.0883395394224
Donald Crisp,0.0828602141414
Charles Coburn,0.0826698622962
Bette Davis,0.0807755817611
Charles Boyer,0.0795221003492
Andy Devine,0.0795128058182
Cesar Romero,0.0793563602541
Cedric Hardwicke,0.078999940495
Melville Cooper,0.0778494498424
Alan Mowbray,0.0766737753657
Edward G. Robinson,0.0764341331336
Basil Rathbone,0.0755779870075
